Mplus VERSION 8 (Linux)
MUTHEN & MUTHEN
06/30/2017   4:23 PM

INPUT INSTRUCTIONS


    DATA: FILE = FAB_Specific.csv;

    VARIABLE:
    	NAMES = JurorID CaseNo OffType FAB_Viol FAB_Prop FAB_Drug FAB_Sex;

    	IDVARIABLE = JurorID;

    	MISSING = OffType-FAB_Sex(-99);

    	USEVARIABLES = FAB_Viol-FAB_Sex;

    ANALYSIS:
    	PROCESS = 4;
    	ESTIMATOR = ML;
      BOOTSTRAP = 10000;

    MODEL:
      FAB_S BY FAB_Viol-FAB_Sex*;
      FAB_S@1;

      FAB_Viol WITH FAB_Sex;

    OUTPUT:
    	SAMP STDYX CINTERVAL(BCBOOTSTRAP);



*** WARNING
  Data set contains cases with missing on all variables.
  These cases were not included in the analysis.
  Number of cases with missing on all variables:  20
   1 WARNING(S) FOUND IN THE INPUT INSTRUCTIONS




SUMMARY OF ANALYSIS

Number of groups                                                 1
Number of observations                                         405

Number of dependent variables                                    4
Number of independent variables                                  0
Number of continuous latent variables                            1

Observed dependent variables

  Continuous
   FAB_VIOL    FAB_PROP    FAB_DRUG    FAB_SEX

Continuous latent variables
   FAB_S

Variables with special functions

  ID variable           JURORID

Estimator                                                       ML
Information matrix                                        OBSERVED
Maximum number of iterations                                  1000
Convergence criterion                                    0.500D-04
Maximum number of steepest descent iterations                   20
Maximum number of iterations for H1                           2000
Convergence criterion for H1                             0.100D-03
Number of bootstrap draws
    Requested                                                10000
    Completed                                                10000

Input data file(s)
  FAB_Specific.csv

Input data format  FREE


SUMMARY OF DATA

     Number of missing data patterns             8


COVARIANCE COVERAGE OF DATA

Minimum covariance coverage value   0.100


     PROPORTION OF DATA PRESENT


           Covariance Coverage
              FAB_VIOL      FAB_PROP      FAB_DRUG      FAB_SEX
              ________      ________      ________      ________
 FAB_VIOL       0.988
 FAB_PROP       0.965         0.968
 FAB_DRUG       0.970         0.963         0.973
 FAB_SEX        0.983         0.965         0.970         0.990


SAMPLE STATISTICS


     ESTIMATED SAMPLE STATISTICS


           Means
              FAB_VIOL      FAB_PROP      FAB_DRUG      FAB_SEX
              ________      ________      ________      ________
               -0.360        -0.230        -0.249        -0.472


           Covariances
              FAB_VIOL      FAB_PROP      FAB_DRUG      FAB_SEX
              ________      ________      ________      ________
 FAB_VIOL       0.593
 FAB_PROP       0.272         0.426
 FAB_DRUG       0.380         0.302         0.631
 FAB_SEX        0.480         0.280         0.437         0.765


           Correlations
              FAB_VIOL      FAB_PROP      FAB_DRUG      FAB_SEX
              ________      ________      ________      ________
 FAB_VIOL       1.000
 FAB_PROP       0.542         1.000
 FAB_DRUG       0.621         0.584         1.000
 FAB_SEX        0.712         0.490         0.629         1.000


     MAXIMUM LOG-LIKELIHOOD VALUE FOR THE UNRESTRICTED (H1) MODEL IS -1476.926


UNIVARIATE SAMPLE STATISTICS


     UNIVARIATE HIGHER-ORDER MOMENT DESCRIPTIVE STATISTICS

         Variable/         Mean/     Skewness/   Minimum/ % with                Percentiles
        Sample Size      Variance    Kurtosis    Maximum  Min/Max      20%/60%    40%/80%    Median

     FAB_VIOL             -0.360      -0.654      -2.000   10.50%      -1.000      0.000      0.000
             400.000       0.595       0.026       1.000    7.75%       0.000      0.000
     FAB_PROP             -0.224      -0.624      -2.000    4.34%      -1.000      0.000      0.000
             392.000       0.424       1.114       2.000    0.26%       0.000      0.000
     FAB_DRUG             -0.241      -0.518      -2.000    9.14%      -1.000      0.000      0.000
             394.000       0.630       0.615       2.000    1.02%       0.000      0.000
     FAB_SEX              -0.474      -0.347      -2.000   16.96%      -1.000      0.000      0.000
             401.000       0.768      -0.254       2.000    1.00%       0.000      0.000


THE MODEL ESTIMATION TERMINATED NORMALLY



MODEL FIT INFORMATION

Number of Free Parameters                       13

Loglikelihood

          H0 Value                       -1478.545
          H1 Value                       -1476.926

Information Criteria

          Akaike (AIC)                    2983.089
          Bayesian (BIC)                  3035.140
          Sample-Size Adjusted BIC        2993.889
            (n* = (n + 2) / 24)

Chi-Square Test of Model Fit

          Value                              3.238
          Degrees of Freedom                     1
          P-Value                           0.0719

RMSEA (Root Mean Square Error Of Approximation)

          Estimate                           0.074
          90 Percent C.I.                    0.000  0.171
          Probability RMSEA <= .05           0.216

CFI/TLI

          CFI                                0.997
          TLI                                0.981

Chi-Square Test of Model Fit for the Baseline Model

          Value                            718.110
          Degrees of Freedom                     6
          P-Value                           0.0000

SRMR (Standardized Root Mean Square Residual)

          Value                              0.009



MODEL RESULTS

                                                    Two-Tailed
                    Estimate       S.E.  Est./S.E.    P-Value

 FAB_S    BY
    FAB_VIOL           0.578      0.042     13.683      0.000
    FAB_PROP           0.454      0.039     11.623      0.000
    FAB_DRUG           0.666      0.043     15.602      0.000
    FAB_SEX            0.644      0.047     13.585      0.000

 FAB_VIOL WITH
    FAB_SEX            0.107      0.037      2.897      0.004

 Intercepts
    FAB_VIOL          -0.360      0.039     -9.341      0.000
    FAB_PROP          -0.230      0.033     -6.893      0.000
    FAB_DRUG          -0.249      0.040     -6.177      0.000
    FAB_SEX           -0.472      0.044    -10.798      0.000

 Variances
    FAB_S              1.000      0.000    999.000    999.000

 Residual Variances
    FAB_VIOL           0.258      0.039      6.695      0.000
    FAB_PROP           0.220      0.030      7.221      0.000
    FAB_DRUG           0.187      0.042      4.399      0.000
    FAB_SEX            0.350      0.053      6.561      0.000


STANDARDIZED MODEL RESULTS


STDYX Standardization

                                                    Two-Tailed
                    Estimate       S.E.  Est./S.E.    P-Value

 FAB_S    BY
    FAB_VIOL           0.751      0.043     17.534      0.000
    FAB_PROP           0.696      0.046     15.125      0.000
    FAB_DRUG           0.839      0.039     21.499      0.000
    FAB_SEX            0.736      0.046     16.089      0.000

 FAB_VIOL WITH
    FAB_SEX            0.355      0.092      3.863      0.000

 Intercepts
    FAB_VIOL          -0.468      0.045    -10.369      0.000
    FAB_PROP          -0.352      0.048     -7.369      0.000
    FAB_DRUG          -0.313      0.048     -6.486      0.000
    FAB_SEX           -0.539      0.048    -11.118      0.000

 Variances
    FAB_S              1.000      0.000    999.000    999.000

 Residual Variances
    FAB_VIOL           0.436      0.064      6.811      0.000
    FAB_PROP           0.516      0.064      8.118      0.000
    FAB_DRUG           0.296      0.065      4.536      0.000
    FAB_SEX            0.458      0.067      6.819      0.000


R-SQUARE

    Observed                                        Two-Tailed
    Variable        Estimate       S.E.  Est./S.E.    P-Value

    FAB_VIOL           0.564      0.064      8.821      0.000
    FAB_PROP           0.484      0.064      7.612      0.000
    FAB_DRUG           0.704      0.065     10.798      0.000
    FAB_SEX            0.542      0.067      8.080      0.000


CONFIDENCE INTERVALS OF MODEL RESULTS

                  Lower .5%  Lower 2.5%    Lower 5%    Estimate    Upper 5%  Upper 2.5%   Upper .5%

 FAB_S    BY
    FAB_VIOL         0.465       0.496       0.509       0.578       0.647       0.659       0.683
    FAB_PROP         0.353       0.378       0.390       0.454       0.518       0.530       0.554
    FAB_DRUG         0.555       0.582       0.595       0.666       0.736       0.749       0.774
    FAB_SEX          0.517       0.549       0.565       0.644       0.721       0.736       0.763

 FAB_VIOL WITH
    FAB_SEX          0.014       0.037       0.048       0.107       0.169       0.180       0.209

 Intercepts
    FAB_VIOL        -0.463      -0.436      -0.425      -0.360      -0.298      -0.286      -0.262
    FAB_PROP        -0.317      -0.296      -0.285      -0.230      -0.175      -0.167      -0.147
    FAB_DRUG        -0.358      -0.330      -0.316      -0.249      -0.185      -0.171      -0.144
    FAB_SEX         -0.587      -0.560      -0.544      -0.472      -0.402      -0.388      -0.361

 Variances
    FAB_S            1.000       1.000       1.000       1.000       1.000       1.000       1.000

 Residual Variances
    FAB_VIOL         0.163       0.187       0.199       0.258       0.325       0.338       0.363
    FAB_PROP         0.150       0.166       0.174       0.220       0.276       0.286       0.309
    FAB_DRUG         0.085       0.110       0.122       0.187       0.262       0.277       0.307
    FAB_SEX          0.222       0.251       0.269       0.350       0.445       0.462       0.494


CONFIDENCE INTERVALS OF STANDARDIZED MODEL RESULTS


STDYX Standardization

                  Lower .5%  Lower 2.5%    Lower 5%    Estimate    Upper 5%  Upper 2.5%   Upper .5%

 FAB_S    BY
    FAB_VIOL         0.627       0.662       0.676       0.751       0.817       0.829       0.852
    FAB_PROP         0.561       0.598       0.614       0.696       0.766       0.778       0.805
    FAB_DRUG         0.729       0.755       0.771       0.839       0.899       0.910       0.931
    FAB_SEX          0.607       0.637       0.656       0.736       0.806       0.820       0.843

 FAB_VIOL WITH
    FAB_SEX          0.055       0.148       0.190       0.355       0.486       0.506       0.551

 Intercepts
    FAB_VIOL        -0.585      -0.554      -0.541      -0.468      -0.393      -0.378      -0.351
    FAB_PROP        -0.471      -0.443      -0.428      -0.352      -0.271      -0.256      -0.228
    FAB_DRUG        -0.438      -0.406      -0.392      -0.313      -0.234      -0.217      -0.187
    FAB_SEX         -0.667      -0.635      -0.619      -0.539      -0.459      -0.444      -0.413

 Variances
    FAB_S            1.000       1.000       1.000       1.000       1.000       1.000       1.000

 Residual Variances
    FAB_VIOL         0.274       0.313       0.333       0.436       0.543       0.562       0.606
    FAB_PROP         0.352       0.394       0.413       0.516       0.623       0.643       0.684
    FAB_DRUG         0.133       0.172       0.192       0.296       0.406       0.429       0.469
    FAB_SEX          0.289       0.327       0.350       0.458       0.570       0.594       0.632


     Beginning Time:  16:23:24
        Ending Time:  16:23:28
       Elapsed Time:  00:00:04



MUTHEN & MUTHEN
3463 Stoner Ave.
Los Angeles, CA  90066

Tel: (310) 391-9971
Fax: (310) 391-8971
Web: www.StatModel.com
Support: Support@StatModel.com

Copyright (c) 1998-2017 Muthen & Muthen
