Mplus VERSION 8 (Linux)
MUTHEN & MUTHEN
06/30/2017   3:26 PM

INPUT INSTRUCTIONS


    DATA: FILE = FAB_Specific.csv;

    VARIABLE:
    	NAMES = JurorID CaseNo OffType FAB_Viol FAB_Prop FAB_Drug FAB_Sex;

    	IDVARIABLE = JurorID;

    	MISSING = OffType-FAB_Sex(-99);

    	CLUSTER = OffType;

    	USEVARIABLES = FAB_Viol-FAB_Sex;

    ANALYSIS:
    	PROCESS = 4;
    	TYPE = TWOLEVEL BASIC;

    OUTPUT:
    	SAMP;



*** WARNING
  Data set contains cases with missing on all variables.
  These cases were not included in the analysis.
  Number of cases with missing on all variables:  20
   1 WARNING(S) FOUND IN THE INPUT INSTRUCTIONS




SUMMARY OF ANALYSIS

Number of groups                                                 1
Number of observations                                         405

Number of dependent variables                                    4
Number of independent variables                                  0
Number of continuous latent variables                            0

Observed dependent variables

  Continuous
   FAB_VIOL    FAB_PROP    FAB_DRUG    FAB_SEX

Variables with special functions

  Cluster variable      OFFTYPE
  ID variable           JURORID

Estimator                                                      MLR
Information matrix                                        OBSERVED
Maximum number of iterations                                   100
Convergence criterion                                    0.100D-05
Maximum number of EM iterations                                500
Convergence criteria for the EM algorithm
  Loglikelihood change                                   0.100D-02
  Relative loglikelihood change                          0.100D-05
  Derivative                                             0.100D-03
Minimum variance                                         0.100D-03
Maximum number of steepest descent iterations                   20
Maximum number of iterations for H1                           2000
Convergence criterion for H1                             0.100D-03
Optimization algorithm                                         EMA

Input data file(s)
  FAB_Specific.csv
Input data format  FREE


SUMMARY OF DATA

     Number of missing data patterns             8
     Number of clusters                          5

       Size (s)    Cluster ID with Size s

         29        4
         36        3
         46        5
        123        2
        171        1

     Average cluster size       81.000

     Estimated Intraclass Correlations for the Y Variables

                Intraclass              Intraclass              Intraclass
     Variable  Correlation   Variable  Correlation   Variable  Correlation

     FAB_VIOL     0.016      FAB_PROP     0.001      FAB_DRUG     0.007
     FAB_SEX      0.009



SUMMARY OF MISSING DATA PATTERNS


     MISSING DATA PATTERNS (x = not missing)

           1  2  3  4  5  6  7  8
 FAB_VIOL  x  x  x  x           x
 FAB_PROP  x                 x  x
 FAB_DRUG  x     x        x
 FAB_SEX   x  x  x     x        x


     MISSING DATA PATTERN FREQUENCIES

    Pattern   Frequency     Pattern   Frequency     Pattern   Frequency
          1         390           4           2           7           1
          2           4           5           3           8           1
          3           3           6           1


COVARIANCE COVERAGE OF DATA

Minimum covariance coverage value   0.100


     PROPORTION OF DATA PRESENT


           Covariance Coverage
              FAB_VIOL      FAB_PROP      FAB_DRUG      FAB_SEX
              ________      ________      ________      ________
 FAB_VIOL       0.988
 FAB_PROP       0.965         0.968
 FAB_DRUG       0.970         0.963         0.973
 FAB_SEX        0.983         0.965         0.970         0.990





RESULTS FOR BASIC ANALYSIS

NOTE:  The sample statistics for within and between refer to the
       maximum-likelihood estimated within and between covariance
       matrices, respectively.


     ESTIMATED SAMPLE STATISTICS FOR WITHIN


           Means
              FAB_VIOL      FAB_PROP      FAB_DRUG      FAB_SEX
              ________      ________      ________      ________
                0.000         0.000         0.000         0.000


           Covariances
              FAB_VIOL      FAB_PROP      FAB_DRUG      FAB_SEX
              ________      ________      ________      ________
 FAB_VIOL       0.584
 FAB_PROP       0.271         0.425
 FAB_DRUG       0.373         0.301         0.626
 FAB_SEX        0.472         0.278         0.431         0.759


           Correlations
              FAB_VIOL      FAB_PROP      FAB_DRUG      FAB_SEX
              ________      ________      ________      ________
 FAB_VIOL       1.000
 FAB_PROP       0.543         1.000
 FAB_DRUG       0.617         0.584         1.000
 FAB_SEX        0.709         0.490         0.626         1.000


     ESTIMATED SAMPLE STATISTICS FOR BETWEEN


           Means
              FAB_VIOL      FAB_PROP      FAB_DRUG      FAB_SEX
              ________      ________      ________      ________
               -0.407        -0.237        -0.280        -0.511


           Covariances
              FAB_VIOL      FAB_PROP      FAB_DRUG      FAB_SEX
              ________      ________      ________      ________
 FAB_VIOL       0.009
 FAB_PROP       0.001         0.000
 FAB_DRUG       0.007         0.001         0.005
 FAB_SEX        0.008         0.001         0.006         0.007


           Correlations
              FAB_VIOL      FAB_PROP      FAB_DRUG      FAB_SEX
              ________      ________      ________      ________
 FAB_VIOL       1.000
 FAB_PROP       0.938         1.000
 FAB_DRUG       0.998         0.938         1.000
 FAB_SEX        0.998         0.935         0.998         1.000


     MAXIMUM LOG-LIKELIHOOD VALUE FOR THE UNRESTRICTED (H1) MODEL IS -1475.278


UNIVARIATE SAMPLE STATISTICS


     UNIVARIATE HIGHER-ORDER MOMENT DESCRIPTIVE STATISTICS

         Variable/         Mean/     Skewness/   Minimum/ % with                Percentiles
        Sample Size      Variance    Kurtosis    Maximum  Min/Max      20%/60%    40%/80%    Median

     FAB_VIOL             -0.360      -0.654      -2.000   10.50%      -1.000      0.000      0.000
             400.000       0.595       0.026       1.000    7.75%       0.000      0.000
     FAB_PROP             -0.224      -0.624      -2.000    4.34%      -1.000      0.000      0.000
             392.000       0.424       1.114       2.000    0.26%       0.000      0.000
     FAB_DRUG             -0.241      -0.518      -2.000    9.14%      -1.000      0.000      0.000
             394.000       0.630       0.615       2.000    1.02%       0.000      0.000
     FAB_SEX              -0.474      -0.347      -2.000   16.96%      -1.000      0.000      0.000
             401.000       0.768      -0.254       2.000    1.00%       0.000      0.000


     Beginning Time:  15:26:55
        Ending Time:  15:26:55
       Elapsed Time:  00:00:00



MUTHEN & MUTHEN
3463 Stoner Ave.
Los Angeles, CA  90066

Tel: (310) 391-9971
Fax: (310) 391-8971
Web: www.StatModel.com
Support: Support@StatModel.com

Copyright (c) 1998-2017 Muthen & Muthen
