Mplus VERSION 8 (Linux)
MUTHEN & MUTHEN
06/30/2017   3:26 PM

INPUT INSTRUCTIONS


    DATA: FILE = FAB_Specific.csv;

    VARIABLE:
    	NAMES = JurorID CaseNo OffType FAB_Viol FAB_Prop FAB_Drug FAB_Sex;

    	IDVARIABLE = JurorID;

    	MISSING = OffType-FAB_Sex(-99);

    	CLUSTER = CaseNo;

    	USEVARIABLES = FAB_Viol-FAB_Sex;

    ANALYSIS:
    	PROCESS = 4;
    	TYPE = TWOLEVEL BASIC;

    OUTPUT:
    	SAMP;



*** WARNING
  One or more individual-level variables have no variation within a
  cluster for the following clusters.

     Variable   Cluster IDs with no within-cluster variation

      FAB_VIOL    72 34 5 100 103 51 57 43 127 84 97 99 58 106 45 32 96 13
      FAB_PROP    118 50 55 29 72 34 5 103 51 57 40 43 127 47 84 97 99 58 106 108 45 95 101 83
                  6 19 115 123 98 96
      FAB_DRUG    118 55 71 72 5 8 100 103 30 57 65 43 47 45 95 6 19 123 98 96 37
      FAB_SEX     50 72 34 8 100 103 43 127 97 106 45 32 6

*** WARNING
  Data set contains cases with missing on all variables.
  These cases were not included in the analysis.
  Number of cases with missing on all variables:  20
   2 WARNING(S) FOUND IN THE INPUT INSTRUCTIONS




SUMMARY OF ANALYSIS

Number of groups                                                 1
Number of observations                                         405

Number of dependent variables                                    4
Number of independent variables                                  0
Number of continuous latent variables                            0

Observed dependent variables

  Continuous
   FAB_VIOL    FAB_PROP    FAB_DRUG    FAB_SEX

Variables with special functions

  Cluster variable      CASENO
  ID variable           JURORID

Estimator                                                      MLR
Information matrix                                        OBSERVED
Maximum number of iterations                                   100
Convergence criterion                                    0.100D-05
Maximum number of EM iterations                                500
Convergence criteria for the EM algorithm
  Loglikelihood change                                   0.100D-02
  Relative loglikelihood change                          0.100D-05
  Derivative                                             0.100D-03
Minimum variance                                         0.100D-03
Maximum number of steepest descent iterations                   20
Maximum number of iterations for H1                           2000
Convergence criterion for H1                             0.100D-03
Optimization algorithm                                         EMA

Input data file(s)
  FAB_Specific.csv
Input data format  FREE


SUMMARY OF DATA

     Number of missing data patterns             8
     Number of clusters                        118

       Size (s)    Cluster ID with Size s

          1        10 44 52 75 12 23 25 33 42 62 76 89 94 104 107 117 118
                   124 125 126 54 26
          2        50 55 29 111 71 72 34 5 8 100 103 51 30 57 35 40 65
                   43 127 78 47 129
          3        22 84 85 16 17 97 99 38 48 58 106 21 108 45 81 59 31
                   95 68 36 101 83 114
          4        77 32 6 113 19 115 86 66 123 91 9 24 11 56 67 120 1
                   61
          5        53 39 93 46 63 4 98 112 27 80 102 3 110 87 128
          6        88 105 90 18 96 122 41
          7        49 13 70 28 92 7 37
          8        20 73 64 79

     Average cluster size        3.432

     Estimated Intraclass Correlations for the Y Variables

                Intraclass              Intraclass              Intraclass
     Variable  Correlation   Variable  Correlation   Variable  Correlation

     FAB_VIOL     0.022      FAB_PROP     0.012      FAB_DRUG     0.039
     FAB_SEX      0.031



SUMMARY OF MISSING DATA PATTERNS


     MISSING DATA PATTERNS (x = not missing)

           1  2  3  4  5  6  7  8
 FAB_VIOL  x  x        x  x  x
 FAB_PROP  x           x        x
 FAB_DRUG  x     x           x
 FAB_SEX   x  x     x  x     x


     MISSING DATA PATTERN FREQUENCIES

    Pattern   Frequency     Pattern   Frequency     Pattern   Frequency
          1         390           4           3           7           3
          2           4           5           1           8           1
          3           1           6           2


COVARIANCE COVERAGE OF DATA

Minimum covariance coverage value   0.100


     PROPORTION OF DATA PRESENT


           Covariance Coverage
              FAB_VIOL      FAB_PROP      FAB_DRUG      FAB_SEX
              ________      ________      ________      ________
 FAB_VIOL       0.988
 FAB_PROP       0.965         0.968
 FAB_DRUG       0.970         0.963         0.973
 FAB_SEX        0.983         0.965         0.970         0.990





RESULTS FOR BASIC ANALYSIS

NOTE:  The sample statistics for within and between refer to the
       maximum-likelihood estimated within and between covariance
       matrices, respectively.


     ESTIMATED SAMPLE STATISTICS FOR WITHIN


           Means
              FAB_VIOL      FAB_PROP      FAB_DRUG      FAB_SEX
              ________      ________      ________      ________
                0.000         0.000         0.000         0.000


           Covariances
              FAB_VIOL      FAB_PROP      FAB_DRUG      FAB_SEX
              ________      ________      ________      ________
 FAB_VIOL       0.580
 FAB_PROP       0.265         0.421
 FAB_DRUG       0.362         0.292         0.606
 FAB_SEX        0.463         0.271         0.413         0.741


           Correlations
              FAB_VIOL      FAB_PROP      FAB_DRUG      FAB_SEX
              ________      ________      ________      ________
 FAB_VIOL       1.000
 FAB_PROP       0.536         1.000
 FAB_DRUG       0.611         0.579         1.000
 FAB_SEX        0.707         0.484         0.616         1.000


     ESTIMATED SAMPLE STATISTICS FOR BETWEEN


           Means
              FAB_VIOL      FAB_PROP      FAB_DRUG      FAB_SEX
              ________      ________      ________      ________
               -0.358        -0.228        -0.245        -0.468


           Covariances
              FAB_VIOL      FAB_PROP      FAB_DRUG      FAB_SEX
              ________      ________      ________      ________
 FAB_VIOL       0.013
 FAB_PROP       0.008         0.005
 FAB_DRUG       0.017         0.010         0.025
 FAB_SEX        0.016         0.009         0.024         0.024


           Correlations
              FAB_VIOL      FAB_PROP      FAB_DRUG      FAB_SEX
              ________      ________      ________      ________
 FAB_VIOL       1.000
 FAB_PROP       0.952         1.000
 FAB_DRUG       0.938         0.881         1.000
 FAB_SEX        0.908         0.841         0.970         1.000


     MAXIMUM LOG-LIKELIHOOD VALUE FOR THE UNRESTRICTED (H1) MODEL IS -1476.341


UNIVARIATE SAMPLE STATISTICS


     UNIVARIATE HIGHER-ORDER MOMENT DESCRIPTIVE STATISTICS

         Variable/         Mean/     Skewness/   Minimum/ % with                Percentiles
        Sample Size      Variance    Kurtosis    Maximum  Min/Max      20%/60%    40%/80%    Median

     FAB_VIOL             -0.360      -0.654      -2.000   10.50%      -1.000      0.000      0.000
             400.000       0.595       0.026       1.000    7.75%       0.000      0.000
     FAB_PROP             -0.224      -0.624      -2.000    4.34%      -1.000      0.000      0.000
             392.000       0.424       1.114       2.000    0.26%       0.000      0.000
     FAB_DRUG             -0.241      -0.518      -2.000    9.14%      -1.000      0.000      0.000
             394.000       0.630       0.615       2.000    1.02%       0.000      0.000
     FAB_SEX              -0.474      -0.347      -2.000   16.96%      -1.000      0.000      0.000
             401.000       0.768      -0.254       2.000    1.00%       0.000      0.000


     Beginning Time:  15:26:17
        Ending Time:  15:26:17
       Elapsed Time:  00:00:00



MUTHEN & MUTHEN
3463 Stoner Ave.
Los Angeles, CA  90066

Tel: (310) 391-9971
Fax: (310) 391-8971
Web: www.StatModel.com
Support: Support@StatModel.com

Copyright (c) 1998-2017 Muthen & Muthen
