Mplus VERSION 8 (Linux)
MUTHEN & MUTHEN
06/22/2017   1:40 PM

INPUT INSTRUCTIONS


    DATA: FILE = RedeemabilityGeneral.csv;

    VARIABLE:
      NAMES = JurorID CaseNo OffType S2_C1_h S2_C1_i S2_C1_j S2_C1_k;

      IDVARIABLE = JurorID;

      CLUSTER = CaseNo;

      USEVARIABLES = S2_C1_j S2_C1_k S2C1h_r S2C1i_r;

      CATEGORICAL = S2_C1_j S2_C1_k S2C1h_r S2C1i_r;

      MISSING = S2_C1_h-S2_C1_k(99);

    DEFINE:
      S2C1h_r = 6 - S2_C1_h;
      S2C1i_r = 6 - S2_C1_i;

    ANALYSIS:
      PROCESS = 4;
      ESTIMATOR = WLSMV;
      TYPE = TWOLEVEL BASIC;




*** WARNING
  One or more individual-level variables have no variation within a
  cluster for the following clusters.

     Variable   Cluster IDs with no within-cluster variation

      S2_C1_J     15 54 111 72 5 103 40 108 31 129 63
      S2_C1_K     54 29 8 57 65 127 22 85 47 59 91 9 113 67 73
      S2C1H_R     111 8 103 65 127 84 85 97 47 129 77
      S2C1I_R     54 71 5 103 50 65 127 36 45 59 31 129 101 63

*** WARNING
  Data set contains cases with missing on all variables.
  These cases were not included in the analysis.
  Number of cases with missing on all variables:  7
   2 WARNING(S) FOUND IN THE INPUT INSTRUCTIONS




SUMMARY OF ANALYSIS

Number of groups                                                 1
Number of observations                                         418

Number of dependent variables                                    4
Number of independent variables                                  0
Number of continuous latent variables                            0

Observed dependent variables

  Binary and ordered categorical (ordinal)
   S2_C1_J     S2_C1_K     S2C1H_R     S2C1I_R

Variables with special functions

  Cluster variable      CASENO
  ID variable           JURORID

Estimator                                                    WLSMV
Optimization Specifications for the Quasi-Newton Algorithm for
Continuous Outcomes
  Maximum number of iterations                                1000
  Convergence criterion                                  0.100D-05
Optimization Specifications for the EM Algorithm
  Maximum number of iterations                                 500
  Convergence criteria
    Loglikelihood change                                 0.100D-02
    Relative loglikelihood change                        0.100D-05
    Derivative                                           0.100D-02
Optimization Specifications for the M step of the EM Algorithm for
Categorical Latent variables
  Number of M step iterations                                    1
  M step convergence criterion                           0.100D-02
  Basis for M step termination                           ITERATION
Optimization Specifications for the M step of the EM Algorithm for
Censored, Binary or Ordered Categorical (Ordinal), Unordered
Categorical (Nominal) and Count Outcomes
  Number of M step iterations                                    1
  M step convergence criterion                           0.100D-02
  Basis for M step termination                           ITERATION
  Maximum value for logit thresholds                            10
  Minimum value for logit thresholds                           -10
  Minimum expected cell size for chi-square              0.100D-01
Maximum number of iterations for H1                           2000
Convergence criterion for H1                             0.100D-03
Optimization algorithm                                          FS
Integration Specifications
  Type                                                    STANDARD
  Number of integration points                                   7
  Dimensions of numerical integration                            2
  Adaptive quadrature                                           ON
Link                                                        PROBIT
Cholesky                                                        ON

Input data file(s)
  RedeemabilityGeneral.csv
Input data format  FREE


SUMMARY OF DATA

     Number of clusters                        120

       Size (s)    Cluster ID with Size s

          1        10 15 44 52 75 12 23 25 33 42 60 62 76 89 94 104 107
                   117 118 124 125 126 26 35
          2        54 55 29 111 71 72 34 5 8 100 103 50 30 57 51 40 65
                   43 127
          3        22 38 36 78 84 85 16 17 97 99 47 48 58 106 21 108 45
                   81 59 31 95 68 129 91 9 11
          4        83 32 6 113 114 115 86 66 123 101 77 24 19 56 63
          5        4 67 87 53 39 93 46 27 120 98 112 1 80 102 3 61
          6        110 18 88 105 90 128 96
          7        122 13 49 41 70 28 92 7
          8        73 20 37 64 79

     Average cluster size        3.483

     Estimated Intraclass Correlations for the Y Variables

                Intraclass              Intraclass              Intraclass
     Variable  Correlation   Variable  Correlation   Variable  Correlation

     S2_C1_J      0.004      S2_C1_K      0.000      S2C1H_R      0.000
     S2C1I_R      0.000



SUMMARY OF MISSING DATA PATTERNS


COVARIANCE COVERAGE OF DATA

Minimum covariance coverage value   0.100


UNIVARIATE PROPORTIONS AND COUNTS FOR CATEGORICAL VARIABLES

    S2_C1_J
      Category 1    0.036           15.000
      Category 2    0.409          170.000
      Category 3    0.411          171.000
      Category 4    0.127           53.000
      Category 5    0.017            7.000
    S2_C1_K
      Category 1    0.019            8.000
      Category 2    0.103           43.000
      Category 3    0.156           65.000
      Category 4    0.567          237.000
      Category 5    0.156           65.000
    S2C1H_R
      Category 1    0.029           12.000
      Category 2    0.428          178.000
      Category 3    0.447          186.000
      Category 4    0.089           37.000
      Category 5    0.007            3.000
    S2C1I_R
      Category 1    0.029           12.000
      Category 2    0.348          145.000
      Category 3    0.388          162.000
      Category 4    0.209           87.000
      Category 5    0.026           11.000





RESULTS FOR BASIC ANALYSIS


     ESTIMATED SAMPLE STATISTICS


           MEANS/INTERCEPTS/THRESHOLDS
              S2_C1_J$      S2_C1_J$      S2_C1_J$      S2_C1_J$      S2_C1_K$
              ________      ________      ________      ________      ________
               -1.801        -0.138         1.064         2.131        -2.072


           MEANS/INTERCEPTS/THRESHOLDS
              S2_C1_K$      S2_C1_K$      S2_C1_K$      S2C1H_R$      S2C1H_R$
              ________      ________      ________      ________      ________
               -1.165        -0.590         1.013        -1.898        -0.109


           MEANS/INTERCEPTS/THRESHOLDS
              S2C1H_R$      S2C1H_R$      S2C1I_R$      S2C1I_R$      S2C1I_R$
              ________      ________      ________      ________      ________
                1.304         2.447        -1.899        -0.315         0.722


           MEANS/INTERCEPTS/THRESHOLDS
              S2C1I_R$
              ________
                1.937


           WITHIN LEVEL VARIANCE/COVARIANCE
              S2_C1_J       S2_C1_K       S2C1H_R       S2C1I_R
              ________      ________      ________      ________
 S2_C1_J        1.000
 S2_C1_K        0.348         1.000
 S2C1H_R        0.421         0.187         1.000
 S2C1I_R        0.478         0.133         0.423         1.000


           WITHIN LEVEL CORRELATION
              S2_C1_J       S2_C1_K       S2C1H_R       S2C1I_R
              ________      ________      ________      ________
 S2_C1_J        1.000
 S2_C1_K        0.348         1.000
 S2C1H_R        0.421         0.187         1.000
 S2C1I_R        0.478         0.133         0.423         1.000


           BETWEEN LEVEL VARIANCE/COVARIANCE
              S2_C1_J       S2_C1_K       S2C1H_R       S2C1I_R
              ________      ________      ________      ________
 S2_C1_J        0.004
 S2_C1_K        0.001         0.000
 S2C1H_R        0.000         0.000         0.000
 S2C1I_R        0.000         0.000         0.000         0.000


           BETWEEN LEVEL CORRELATION
              S2_C1_J       S2_C1_K       S2C1H_R       S2C1I_R
              ________      ________      ________      ________
 S2_C1_J        1.000
 S2_C1_K        0.978         1.000
 S2C1H_R        0.001         0.000         1.000
 S2C1I_R        0.000         0.000         0.000         1.000


     Beginning Time:  13:40:16
        Ending Time:  13:40:19
       Elapsed Time:  00:00:03



MUTHEN & MUTHEN
3463 Stoner Ave.
Los Angeles, CA  90066

Tel: (310) 391-9971
Fax: (310) 391-8971
Web: www.StatModel.com
Support: Support@StatModel.com

Copyright (c) 1998-2017 Muthen & Muthen
