Mplus VERSION 8
MUTHEN & MUTHEN
06/21/2017   2:28 PM

INPUT INSTRUCTIONS


    DATA: FILE = GeneralPunitiveness.csv;

    VARIABLE:
      NAMES = JurorID CaseNo OffType S2_B4_e S2_B4_f S2_B4_g
          S2_B4_h S2_B4_i S2_B4_j S2_B4_k;

      MISSING = OffType-S2_B4_k(99);

      IDVARIABLE = JurorID;

      CATEGORICAL = S2_B4_e-S2_B4_k;

      USEVARIABLES = S2_B4_e-S2_B4_k;

      CLUSTER = CaseNo;

    ANALYSIS:
      PROCESS = 4;
      TYPE = TWOLEVEL BASIC;

    OUTPUT: SAMP;



*** WARNING
  One or more individual-level variables have no variation within a
  cluster for the following clusters.

     Variable   Cluster IDs with no within-cluster variation

      S2_B4_E     15 51 54 71 35 127 101 32 11
      S2_B4_F     29 111 34 35 127 95 66 67
      S2_B4_G     54 8 127 17 106 77
      S2_B4_H     29 5 84 59 31
      S2_B4_I     15 55 29 40 43 127 78 17 47 48 58 31 86 9 87 46
      S2_B4_J     29 71 35 43 106 81 95 68 91
      S2_B4_K     15 71 8 38

*** WARNING
  Data set contains cases with missing on all variables.
  These cases were not included in the analysis.
  Number of cases with missing on all variables:  3
   2 WARNING(S) FOUND IN THE INPUT INSTRUCTIONS




SUMMARY OF ANALYSIS

Number of groups                                                 1
Number of observations                                         422

Number of dependent variables                                    7
Number of independent variables                                  0
Number of continuous latent variables                            0

Observed dependent variables

  Binary and ordered categorical (ordinal)
   S2_B4_E     S2_B4_F     S2_B4_G     S2_B4_H     S2_B4_I     S2_B4_J
   S2_B4_K

Variables with special functions

  Cluster variable      CASENO
  ID variable           JURORID

Estimator                                                    WLSMV
Optimization Specifications for the Quasi-Newton Algorithm for
Continuous Outcomes
  Maximum number of iterations                                1000
  Convergence criterion                                  0.100D-05
Optimization Specifications for the EM Algorithm
  Maximum number of iterations                                 500
  Convergence criteria
    Loglikelihood change                                 0.100D-02
    Relative loglikelihood change                        0.100D-05
    Derivative                                           0.100D-02
Optimization Specifications for the M step of the EM Algorithm for
Categorical Latent variables
  Number of M step iterations                                    1
  M step convergence criterion                           0.100D-02
  Basis for M step termination                           ITERATION
Optimization Specifications for the M step of the EM Algorithm for
Censored, Binary or Ordered Categorical (Ordinal), Unordered
Categorical (Nominal) and Count Outcomes
  Number of M step iterations                                    1
  M step convergence criterion                           0.100D-02
  Basis for M step termination                           ITERATION
  Maximum value for logit thresholds                            10
  Minimum value for logit thresholds                           -10
  Minimum expected cell size for chi-square              0.100D-01
Maximum number of iterations for H1                           2000
Convergence criterion for H1                             0.100D-03
Optimization algorithm                                          FS
Integration Specifications
  Type                                                    STANDARD
  Number of integration points                                   7
  Dimensions of numerical integration                            2
  Adaptive quadrature                                           ON
Link                                                        PROBIT
Cholesky                                                        ON

Input data file(s)
  GeneralPunitiveness.csv
Input data format  FREE


SUMMARY OF DATA

     Number of clusters                        120

       Size (s)    Cluster ID with Size s

          1        10 15 44 52 75 12 23 25 33 42 60 62 76 89 94 104 107
                   117 118 124 125 126 26
          2        51 54 55 29 111 71 72 34 5 8 100 103 50 30 57 35 40
                   65 43 127
          3        22 38 36 78 84 85 16 17 97 99 47 48 58 106 21 108 45
                   81 59 31 95 68 129
          4        101 77 19 83 32 6 113 114 115 86 66 123 91 9 24 11 56
          5        27 4 67 87 53 39 93 46 63 120 98 112 1 80 102 3 61
          6        110 18 88 105 90 128 96
          7        122 13 49 41 70 28 92 7 20
          8        73 37 64 79

     Average cluster size        3.517

     Estimated Intraclass Correlations for the Y Variables

                Intraclass              Intraclass              Intraclass
     Variable  Correlation   Variable  Correlation   Variable  Correlation

     S2_B4_E      0.001      S2_B4_F      0.000      S2_B4_G      0.060
     S2_B4_H      0.032      S2_B4_I      0.031      S2_B4_J      0.000
     S2_B4_K      0.000



SUMMARY OF MISSING DATA PATTERNS


COVARIANCE COVERAGE OF DATA

Minimum covariance coverage value   0.100


UNIVARIATE PROPORTIONS AND COUNTS FOR CATEGORICAL VARIABLES

    S2_B4_E
      Category 1    0.329          138.000
      Category 2    0.169           71.000
      Category 3    0.181           76.000
      Category 4    0.179           75.000
      Category 5    0.143           60.000
    S2_B4_F
      Category 1    0.024           10.000
      Category 2    0.093           39.000
      Category 3    0.363          153.000
      Category 4    0.361          152.000
      Category 5    0.159           67.000
    S2_B4_G
      Category 1    0.024           10.000
      Category 2    0.153           64.000
      Category 3    0.341          142.000
      Category 4    0.367          153.000
      Category 5    0.115           48.000
    S2_B4_H
      Category 1    0.057           24.000
      Category 2    0.242          102.000
      Category 3    0.301          127.000
      Category 4    0.261          110.000
      Category 5    0.140           59.000
    S2_B4_I
      Category 1    0.010            4.000
      Category 2    0.095           40.000
      Category 3    0.352          148.000
      Category 4    0.404          170.000
      Category 5    0.140           59.000
    S2_B4_J
      Category 1    0.088           37.000
      Category 2    0.261          110.000
      Category 3    0.256          108.000
      Category 4    0.249          105.000
      Category 5    0.147           62.000
    S2_B4_K
      Category 1    0.100           42.000
      Category 2    0.233           98.000
      Category 3    0.267          112.000
      Category 4    0.260          109.000
      Category 5    0.140           59.000





RESULTS FOR BASIC ANALYSIS


     ESTIMATED SAMPLE STATISTICS


           MEANS/INTERCEPTS/THRESHOLDS
              S2_B4_E$      S2_B4_E$      S2_B4_E$      S2_B4_E$      S2_B4_F$
              ________      ________      ________      ________      ________
               -0.444        -0.006         0.464         1.068        -1.982


           MEANS/INTERCEPTS/THRESHOLDS
              S2_B4_F$      S2_B4_F$      S2_B4_F$      S2_B4_G$      S2_B4_G$
              ________      ________      ________      ________      ________
               -1.193        -0.051         0.998        -2.034        -0.946


           MEANS/INTERCEPTS/THRESHOLDS
              S2_B4_G$      S2_B4_G$      S2_B4_H$      S2_B4_H$      S2_B4_H$
              ________      ________      ________      ________      ________
                0.057         1.244        -1.605        -0.531         0.261


           MEANS/INTERCEPTS/THRESHOLDS
              S2_B4_H$      S2_B4_I$      S2_B4_I$      S2_B4_I$      S2_B4_I$
              ________      ________      ________      ________      ________
                1.102        -2.372        -1.270        -0.106         1.104


           MEANS/INTERCEPTS/THRESHOLDS
              S2_B4_J$      S2_B4_J$      S2_B4_J$      S2_B4_J$      S2_B4_K$
              ________      ________      ________      ________      ________
               -1.355        -0.390         0.265         1.050        -1.282


           MEANS/INTERCEPTS/THRESHOLDS
              S2_B4_K$      S2_B4_K$      S2_B4_K$
              ________      ________      ________
               -0.431         0.253         1.078


           WITHIN LEVEL VARIANCE/COVARIANCE
              S2_B4_E       S2_B4_F       S2_B4_G       S2_B4_H       S2_B4_I
              ________      ________      ________      ________      ________
 S2_B4_E        1.000
 S2_B4_F        0.524         1.000
 S2_B4_G        0.417         0.758         1.000
 S2_B4_H        0.484         0.607         0.519         1.000
 S2_B4_I        0.477         0.532         0.488         0.435         1.000
 S2_B4_J        0.540         0.642         0.600         0.733         0.621
 S2_B4_K        0.611         0.660         0.595         0.766         0.588


           WITHIN LEVEL VARIANCE/COVARIANCE
              S2_B4_J       S2_B4_K
              ________      ________
 S2_B4_J        1.000
 S2_B4_K        0.865         1.000


           WITHIN LEVEL CORRELATION
              S2_B4_E       S2_B4_F       S2_B4_G       S2_B4_H       S2_B4_I
              ________      ________      ________      ________      ________
 S2_B4_E        1.000
 S2_B4_F        0.524         1.000
 S2_B4_G        0.417         0.758         1.000
 S2_B4_H        0.484         0.607         0.519         1.000
 S2_B4_I        0.477         0.532         0.488         0.435         1.000
 S2_B4_J        0.540         0.642         0.600         0.733         0.621
 S2_B4_K        0.611         0.660         0.595         0.766         0.588


           WITHIN LEVEL CORRELATION
              S2_B4_J       S2_B4_K
              ________      ________
 S2_B4_J        1.000
 S2_B4_K        0.865         1.000


           BETWEEN LEVEL VARIANCE/COVARIANCE
              S2_B4_E       S2_B4_F       S2_B4_G       S2_B4_H       S2_B4_I
              ________      ________      ________      ________      ________
 S2_B4_E        0.001
 S2_B4_F        0.001         0.000
 S2_B4_G        0.008         0.005         0.063
 S2_B4_H        0.005         0.004         0.046         0.033
 S2_B4_I        0.005         0.004         0.045         0.033         0.032
 S2_B4_J        0.001         0.000         0.005         0.003         0.003
 S2_B4_K        0.001         0.000         0.005        -0.004         0.004


           BETWEEN LEVEL VARIANCE/COVARIANCE
              S2_B4_J       S2_B4_K
              ________      ________
 S2_B4_J        0.000
 S2_B4_K        0.000         0.000


           BETWEEN LEVEL CORRELATION
              S2_B4_E       S2_B4_F       S2_B4_G       S2_B4_H       S2_B4_I
              ________      ________      ________      ________      ________
 S2_B4_E        1.000
 S2_B4_F        0.840         1.000
 S2_B4_G        0.993         0.999         1.000
 S2_B4_H        0.987         0.971         0.999         1.000
 S2_B4_I        0.985         0.960         0.999         1.000         1.000
 S2_B4_J        0.870        -0.941         0.967         0.877         0.970
 S2_B4_K        0.945         0.778         0.994        -0.969         0.987


           BETWEEN LEVEL CORRELATION
              S2_B4_J       S2_B4_K
              ________      ________
 S2_B4_J        1.000
 S2_B4_K       -0.704         1.000


DIAGRAM INFORMATION

  Mplus diagrams are currently not available for multilevel analysis.
  No diagram output was produced.


     Beginning Time:  14:28:13
        Ending Time:  14:29:33
       Elapsed Time:  00:01:20



MUTHEN & MUTHEN
3463 Stoner Ave.
Los Angeles, CA  90066

Tel: (310) 391-9971
Fax: (310) 391-8971
Web: www.StatModel.com
Support: Support@StatModel.com

Copyright (c) 1998-2017 Muthen & Muthen
