Mplus VERSION 8
MUTHEN & MUTHEN
07/28/2017   1:39 PM

INPUT INSTRUCTIONS


    DATA:
      FILE = ../../SEM/SEM General/Analysis_FAB.csv;

    VARIABLE:
      NAMES = JurorID CaseNo OffType FAB_Spec FAB_Viol
          FAB_Prop FAB_Drug FAB_Sex s2_A15a s2_A15b s2_A15c s2_A15d
          S2_C1_h S2_C1_i S2_C1_j Empathy S2_C2_b S2_C2_c S2_C2_d
          S2_C2_e S2_B4_e S2_B4_f S2_B4_g S2_B4_h S2_B4_i S2_B4_j
          S2_B4_k s2_C1_a s2_C1_b s2_C1_c s2_C1_d s2_C1_e s2_C1_f
          s2_C1_g PercGap JurSvDf GenLen B2aaViol B2abProp B2acDrug
          B2adSex B2baViol B2bbProp B2bcDrug B2bdSex A14aInd A14bEnv;

      IDVARIABLE = JurorID;

      USEVARIABLES = s2_C1_a s2_C1_b s2_C1_c s2_C1_d s2C1e_r
          s2C1f_r s2C1g_r;

      CATEGORICAL = s2_C1_a s2_C1_b s2_C1_c s2_C1_d s2C1e_r
          s2C1f_r s2C1g_r;

      MISSING = ALL(-99);

    DEFINE:
      s2C1e_r = 6 - s2_C1_e;
      s2C1f_r = 6 - s2_C1_f;
      s2C1g_r = 6 - s2_C1_g;

    ANALYSIS:
      PROCESS = 4;
      ESTIMATOR = WLSMV;
      BOOTSTRAP = 10000;

    MODEL:
      ANX_1 BY s2_C1_a-s2_C1_d*;ANX_1@1;
      ANX_2 BY s2C1e_r* s2C1f_r s2C1g_r;ANX_2@1;
      S2_C1_C WITH S2_C1_B;

    OUTPUT:
    	STD CINTERVAL(BCBOOTSTRAP);

     !PLOT: TYPE = PLOT3;



*** WARNING
  Data set contains cases with missing on all variables.
  These cases were not included in the analysis.
  Number of cases with missing on all variables:  7
   1 WARNING(S) FOUND IN THE INPUT INSTRUCTIONS




SUMMARY OF ANALYSIS

Number of groups                                                 1
Number of observations                                         418

Number of dependent variables                                    7
Number of independent variables                                  0
Number of continuous latent variables                            2

Observed dependent variables

  Binary and ordered categorical (ordinal)
   S2_C1_A     S2_C1_B     S2_C1_C     S2_C1_D     S2C1E_R     S2C1F_R
   S2C1G_R

Continuous latent variables
   ANX_1       ANX_2

Variables with special functions

  ID variable           JURORID

Estimator                                                    WLSMV
Maximum number of iterations                                  1000
Convergence criterion                                    0.500D-04
Maximum number of steepest descent iterations                   20
Maximum number of iterations for H1                           2000
Convergence criterion for H1                             0.100D-03
Number of bootstrap draws
    Requested                                                10000
    Completed                                                 9933
Parameterization                                             DELTA
Link                                                        PROBIT

Input data file(s)
  ../../SEM/SEM General/Analysis_FAB.csv

Input data format  FREE


SUMMARY OF DATA

     Number of missing data patterns             6


COVARIANCE COVERAGE OF DATA

Minimum covariance coverage value   0.100


     PROPORTION OF DATA PRESENT


           Covariance Coverage
              S2_C1_A       S2_C1_B       S2_C1_C       S2_C1_D       S2C1E_R
              ________      ________      ________      ________      ________
 S2_C1_A        0.998
 S2_C1_B        0.993         0.995
 S2_C1_C        0.993         0.995         0.995
 S2_C1_D        0.988         0.986         0.986         0.988
 S2C1E_R        0.993         0.995         0.995         0.986         0.995
 S2C1F_R        0.998         0.995         0.995         0.988         0.995
 S2C1G_R        0.995         0.993         0.993         0.986         0.993


           Covariance Coverage
              S2C1F_R       S2C1G_R
              ________      ________
 S2C1F_R        1.000
 S2C1G_R        0.998         0.998


UNIVARIATE PROPORTIONS AND COUNTS FOR CATEGORICAL VARIABLES

    S2_C1_A
      Category 1    0.012            5.000
      Category 2    0.082           34.000
      Category 3    0.223           93.000
      Category 4    0.643          268.000
      Category 5    0.041           17.000
    S2_C1_B
      Category 1    0.043           18.000
      Category 2    0.248          103.000
      Category 3    0.312          130.000
      Category 4    0.353          147.000
      Category 5    0.043           18.000
    S2_C1_C
      Category 1    0.067           28.000
      Category 2    0.300          125.000
      Category 3    0.380          158.000
      Category 4    0.228           95.000
      Category 5    0.024           10.000
    S2_C1_D
      Category 1    0.034           14.000
      Category 2    0.087           36.000
      Category 3    0.191           79.000
      Category 4    0.557          230.000
      Category 5    0.131           54.000
    S2C1E_R
      Category 1    0.046           19.000
      Category 2    0.183           76.000
      Category 3    0.308          128.000
      Category 4    0.397          165.000
      Category 5    0.067           28.000
    S2C1F_R
      Category 1    0.167           70.000
      Category 2    0.349          146.000
      Category 3    0.251          105.000
      Category 4    0.201           84.000
      Category 5    0.031           13.000
    S2C1G_R
      Category 1    0.158           66.000
      Category 2    0.312          130.000
      Category 3    0.237           99.000
      Category 4    0.249          104.000
      Category 5    0.043           18.000



THE MODEL ESTIMATION TERMINATED NORMALLY



MODEL FIT INFORMATION

Number of Free Parameters                       37

Chi-Square Test of Model Fit

          Value                             54.745*
          Degrees of Freedom                    12
          P-Value                           0.0000

*   The chi-square value for MLM, MLMV, MLR, ULSMV, WLSM and WLSMV cannot be used
    for chi-square difference testing in the regular way.  MLM, MLR and WLSM
    chi-square difference testing is described on the Mplus website.  MLMV, WLSMV,
    and ULSMV difference testing is done using the DIFFTEST option.

RMSEA (Root Mean Square Error Of Approximation)

          Estimate                           0.092
          90 Percent C.I.                    0.068  0.118
          Probability RMSEA <= .05           0.002

CFI/TLI

          CFI                                0.985
          TLI                                0.974

Chi-Square Test of Model Fit for the Baseline Model

          Value                           2913.081
          Degrees of Freedom                    21
          P-Value                           0.0000

WRMR (Weighted Root Mean Square Residual)

          Value                              0.947



MODEL RESULTS

                                                    Two-Tailed
                    Estimate       S.E.  Est./S.E.    P-Value

 ANX_1    BY
    S2_C1_A            0.719      0.114      6.319      0.000
    S2_C1_B            0.395      0.084      4.722      0.000
    S2_C1_C            0.263      0.080      3.300      0.001
    S2_C1_D            0.402      0.085      4.757      0.000

 ANX_2    BY
    S2C1E_R            0.394      0.057      6.960      0.000
    S2C1F_R            0.894      0.038     23.265      0.000
    S2C1G_R            0.963      0.039     24.823      0.000

 ANX_2    WITH
    ANX_1              0.400      0.087      4.601      0.000

 S2_C1_C  WITH
    S2_C1_B            0.375      0.056      6.718      0.000

 Thresholds
    S2_C1_A$1         -2.257      0.188    -11.995      0.000
    S2_C1_A$2         -1.319      0.087    -15.083      0.000
    S2_C1_A$3         -0.477      0.064     -7.468      0.000
    S2_C1_A$4          1.742      0.112     15.553      0.000
    S2_C1_B$1         -1.714      0.113    -15.177      0.000
    S2_C1_B$2         -0.551      0.065     -8.518      0.000
    S2_C1_B$3          0.262      0.063      4.183      0.000
    S2_C1_B$4          1.714      0.112     15.238      0.000
    S2_C1_C$1         -1.496      0.096    -15.544      0.000
    S2_C1_C$2         -0.338      0.064     -5.314      0.000
    S2_C1_C$3          0.667      0.067      9.921      0.000
    S2_C1_C$4          1.977      0.144     13.732      0.000
    S2_C1_D$1         -1.826      0.122    -14.970      0.000
    S2_C1_D$2         -1.170      0.081    -14.436      0.000
    S2_C1_D$3         -0.489      0.065     -7.571      0.000
    S2_C1_D$4          1.123      0.078     14.307      0.000
    S2C1E_R$1         -1.688      0.111    -15.224      0.000
    S2C1E_R$2         -0.744      0.069    -10.737      0.000
    S2C1E_R$3          0.091      0.062      1.471      0.141
    S2C1E_R$4          1.496      0.095     15.691      0.000
    S2C1F_R$1         -0.964      0.074    -13.052      0.000
    S2C1F_R$2          0.042      0.062      0.676      0.499
    S2C1F_R$3          0.732      0.068     10.724      0.000
    S2C1F_R$4          1.865      0.126     14.750      0.000
    S2C1G_R$1         -1.002      0.074    -13.456      0.000
    S2C1G_R$2         -0.075      0.062     -1.217      0.224
    S2C1G_R$3          0.546      0.065      8.463      0.000
    S2C1G_R$4          1.715      0.112     15.328      0.000

 Variances
    ANX_1              1.000      0.000    999.000    999.000
    ANX_2              1.000      0.000    999.000    999.000


STANDARDIZED MODEL RESULTS


STD Standardization

                                                    Two-Tailed
                    Estimate       S.E.  Est./S.E.    P-Value

 ANX_1    BY
    S2_C1_A            0.719      0.114      6.319      0.000
    S2_C1_B            0.395      0.084      4.722      0.000
    S2_C1_C            0.263      0.080      3.300      0.001
    S2_C1_D            0.402      0.085      4.757      0.000

 ANX_2    BY
    S2C1E_R            0.394      0.057      6.960      0.000
    S2C1F_R            0.894      0.038     23.265      0.000
    S2C1G_R            0.963      0.039     24.823      0.000

 ANX_2    WITH
    ANX_1              0.400      0.087      4.601      0.000

 S2_C1_C  WITH
    S2_C1_B            0.375      0.056      6.718      0.000

 Thresholds
    S2_C1_A$1         -2.257      0.188    -11.995      0.000
    S2_C1_A$2         -1.319      0.087    -15.083      0.000
    S2_C1_A$3         -0.477      0.064     -7.468      0.000
    S2_C1_A$4          1.742      0.112     15.553      0.000
    S2_C1_B$1         -1.714      0.113    -15.177      0.000
    S2_C1_B$2         -0.551      0.065     -8.518      0.000
    S2_C1_B$3          0.262      0.063      4.183      0.000
    S2_C1_B$4          1.714      0.112     15.238      0.000
    S2_C1_C$1         -1.496      0.096    -15.544      0.000
    S2_C1_C$2         -0.338      0.064     -5.314      0.000
    S2_C1_C$3          0.667      0.067      9.921      0.000
    S2_C1_C$4          1.977      0.144     13.732      0.000
    S2_C1_D$1         -1.826      0.122    -14.970      0.000
    S2_C1_D$2         -1.170      0.081    -14.436      0.000
    S2_C1_D$3         -0.489      0.065     -7.571      0.000
    S2_C1_D$4          1.123      0.078     14.307      0.000
    S2C1E_R$1         -1.688      0.111    -15.224      0.000
    S2C1E_R$2         -0.744      0.069    -10.737      0.000
    S2C1E_R$3          0.091      0.062      1.471      0.141
    S2C1E_R$4          1.496      0.095     15.691      0.000
    S2C1F_R$1         -0.964      0.074    -13.052      0.000
    S2C1F_R$2          0.042      0.062      0.676      0.499
    S2C1F_R$3          0.732      0.068     10.724      0.000
    S2C1F_R$4          1.865      0.126     14.750      0.000
    S2C1G_R$1         -1.002      0.074    -13.456      0.000
    S2C1G_R$2         -0.075      0.062     -1.217      0.224
    S2C1G_R$3          0.546      0.065      8.463      0.000
    S2C1G_R$4          1.715      0.112     15.328      0.000

 Variances
    ANX_1              1.000      0.000  *********      0.000
    ANX_2              1.000      0.000  *********      0.000


R-SQUARE

    Observed                                        Two-Tailed   Residual
    Variable        Estimate       S.E.  Est./S.E.    P-Value    Variance

    S2_C1_A            0.518      0.179      2.898      0.004      0.482
    S2_C1_B            0.156      0.067      2.338      0.019      0.844
    S2_C1_C            0.069      0.042      1.629      0.103      0.931
    S2_C1_D            0.162      0.068      2.382      0.017      0.838
    S2C1E_R            0.155      0.044      3.514      0.000      0.845
    S2C1F_R            0.799      0.068     11.673      0.000      0.201
    S2C1G_R            0.928      0.075     12.299      0.000      0.072


CONFIDENCE INTERVALS OF MODEL RESULTS

                  Lower .5%  Lower 2.5%    Lower 5%    Estimate    Upper 5%  Upper 2.5%   Upper .5%

 ANX_1    BY
    S2_C1_A          0.454       0.524       0.558       0.719       0.912       0.969       1.149
    S2_C1_B          0.177       0.228       0.254       0.395       0.528       0.555       0.613
    S2_C1_C          0.049       0.103       0.129       0.263       0.390       0.414       0.467
    S2_C1_D          0.185       0.240       0.267       0.402       0.545       0.571       0.619

 ANX_2    BY
    S2C1E_R          0.235       0.278       0.297       0.394       0.484       0.499       0.529
    S2C1F_R          0.779       0.812       0.825       0.894       0.952       0.963       0.985
    S2C1G_R          0.873       0.896       0.907       0.963       1.033       1.049       1.081

 ANX_2    WITH
    ANX_1            0.178       0.227       0.254       0.400       0.542       0.569       0.621

 S2_C1_C  WITH
    S2_C1_B          0.227       0.264       0.283       0.375       0.465       0.479       0.509

 Thresholds
    S2_C1_A$        -2.821      -2.818      -2.590      -2.257      -2.021      -1.977      -1.900
    S2_C1_A$        -1.572      -1.499      -1.463      -1.319      -1.186      -1.161      -1.108
    S2_C1_A$        -0.641      -0.603      -0.582      -0.477      -0.370      -0.351      -0.308
    S2_C1_A$         1.479       1.535       1.556       1.742       1.900       1.977       2.070
    S2_C1_B$        -2.069      -1.938      -1.932      -1.714      -1.553      -1.517      -1.463
    S2_C1_B$        -0.722      -0.680      -0.661      -0.551      -0.446      -0.429      -0.393
    S2_C1_B$         0.099       0.139       0.161       0.262       0.367       0.387       0.426
    S2_C1_B$         1.463       1.530       1.554       1.714       1.934       1.976       2.070
    S2_C1_C$        -1.770      -1.689      -1.663      -1.496      -1.346      -1.318      -1.264
    S2_C1_C$        -0.505      -0.466      -0.444      -0.338      -0.235      -0.215      -0.178
    S2_C1_C$         0.500       0.535       0.556       0.667       0.776       0.799       0.842
    S2_C1_C$         1.688       1.741       1.769       1.977       2.256       2.258       2.447
    S2_C1_D$        -2.184      -2.068      -2.020      -1.826      -1.638      -1.613      -1.550
    S2_C1_D$        -1.391      -1.341      -1.311      -1.170      -1.043      -1.020      -0.974
    S2_C1_D$        -0.663      -0.620      -0.597      -0.489      -0.384      -0.365      -0.330
    S2_C1_D$         0.936       0.977       0.998       1.123       1.257       1.284       1.346
    S2C1E_R$        -2.022      -1.936      -1.897      -1.688      -1.533      -1.497      -1.445
    S2C1E_R$        -0.929      -0.885      -0.862      -0.744      -0.637      -0.615      -0.570
    S2C1E_R$        -0.069      -0.030      -0.012       0.091       0.191       0.210       0.250
    S2C1E_R$         1.261       1.318       1.346       1.496       1.643       1.688       1.767
    S2C1F_R$        -1.165      -1.108      -1.086      -0.964      -0.838      -0.821      -0.780
    S2C1F_R$        -0.120      -0.078      -0.060       0.042       0.144       0.163       0.205
    S2C1F_R$         0.548       0.597       0.612       0.732       0.838       0.864       0.908
    S2C1F_R$         1.557       1.620       1.666       1.865       2.023       2.072       2.188
    S2C1G_R$        -1.201      -1.152      -1.129      -1.002      -0.884      -0.862      -0.820
    S2C1G_R$        -0.236      -0.197      -0.175      -0.075       0.027       0.048       0.084
    S2C1G_R$         0.376       0.420       0.437       0.546       0.650       0.671       0.713
    S2C1G_R$         1.477       1.517       1.555       1.715       1.935       1.977       2.071

 Variances
    ANX_1            1.000       1.000       1.000       1.000       1.000       1.000       1.000
    ANX_2            1.000       1.000       1.000       1.000       1.000       1.000       1.000


CONFIDENCE INTERVALS OF STANDARDIZED MODEL RESULTS


STD Standardization

                  Lower .5%  Lower 2.5%    Lower 5%    Estimate    Upper 5%  Upper 2.5%   Upper .5%

 ANX_1    BY
    S2_C1_A          0.454       0.524       0.558       0.719       0.912       0.969       1.149
    S2_C1_B          0.177       0.228       0.254       0.395       0.528       0.555       0.613
    S2_C1_C          0.049       0.103       0.129       0.263       0.390       0.414       0.467
    S2_C1_D          0.185       0.240       0.267       0.402       0.545       0.571       0.619

 ANX_2    BY
    S2C1E_R          0.235       0.278       0.297       0.394       0.484       0.499       0.529
    S2C1F_R          0.779       0.812       0.825       0.894       0.952       0.963       0.985
    S2C1G_R          0.873       0.896       0.907       0.963       1.033       1.049       1.081

 ANX_2    WITH
    ANX_1            0.178       0.227       0.254       0.400       0.542       0.569       0.621

 S2_C1_C  WITH
    S2_C1_B          0.227       0.264       0.283       0.375       0.465       0.479       0.509

 Thresholds
    S2_C1_A$        -2.821      -2.818      -2.590      -2.257      -2.021      -1.977      -1.900
    S2_C1_A$        -1.572      -1.499      -1.463      -1.319      -1.186      -1.161      -1.108
    S2_C1_A$        -0.641      -0.603      -0.582      -0.477      -0.370      -0.351      -0.308
    S2_C1_A$         1.479       1.535       1.556       1.742       1.900       1.977       2.070
    S2_C1_B$        -2.069      -1.938      -1.932      -1.714      -1.553      -1.517      -1.463
    S2_C1_B$        -0.722      -0.680      -0.661      -0.551      -0.446      -0.429      -0.393
    S2_C1_B$         0.099       0.139       0.161       0.262       0.367       0.387       0.426
    S2_C1_B$         1.463       1.530       1.554       1.714       1.934       1.976       2.070
    S2_C1_C$        -1.770      -1.689      -1.663      -1.496      -1.346      -1.318      -1.264
    S2_C1_C$        -0.505      -0.466      -0.444      -0.338      -0.235      -0.215      -0.178
    S2_C1_C$         0.500       0.535       0.556       0.667       0.776       0.799       0.842
    S2_C1_C$         1.688       1.741       1.769       1.977       2.256       2.258       2.447
    S2_C1_D$        -2.184      -2.068      -2.020      -1.826      -1.638      -1.613      -1.550
    S2_C1_D$        -1.391      -1.341      -1.311      -1.170      -1.043      -1.020      -0.974
    S2_C1_D$        -0.663      -0.620      -0.597      -0.489      -0.384      -0.365      -0.330
    S2_C1_D$         0.936       0.977       0.998       1.123       1.257       1.284       1.346
    S2C1E_R$        -2.022      -1.936      -1.897      -1.688      -1.533      -1.497      -1.445
    S2C1E_R$        -0.929      -0.885      -0.862      -0.744      -0.637      -0.615      -0.570
    S2C1E_R$        -0.069      -0.030      -0.012       0.091       0.191       0.210       0.250
    S2C1E_R$         1.261       1.318       1.346       1.496       1.643       1.688       1.767
    S2C1F_R$        -1.165      -1.108      -1.086      -0.964      -0.838      -0.821      -0.780
    S2C1F_R$        -0.120      -0.078      -0.060       0.042       0.144       0.163       0.205
    S2C1F_R$         0.548       0.597       0.612       0.732       0.838       0.864       0.908
    S2C1F_R$         1.557       1.620       1.666       1.865       2.023       2.072       2.188
    S2C1G_R$        -1.201      -1.152      -1.129      -1.002      -0.884      -0.862      -0.820
    S2C1G_R$        -0.236      -0.197      -0.175      -0.075       0.027       0.048       0.084
    S2C1G_R$         0.376       0.420       0.437       0.546       0.650       0.671       0.713
    S2C1G_R$         1.477       1.517       1.555       1.715       1.935       1.977       2.071

 Variances
    ANX_1            1.000       1.000       1.000       1.000       1.000       1.000       1.000
    ANX_2            1.000       1.000       1.000       1.000       1.000       1.000       1.000


DIAGRAM INFORMATION

  Use View Diagram under the Diagram menu in the Mplus Editor to view the diagram.
  If running Mplus from the Mplus Diagrammer, the diagram opens automatically.

  Diagram output
    c:\users\15484013\owncloud\papers\secondary\tasmania\constructs\non-crime related anxieties\2-factor_corr_boot.dgm

     Beginning Time:  13:39:07
        Ending Time:  13:41:04
       Elapsed Time:  00:01:57



MUTHEN & MUTHEN
3463 Stoner Ave.
Los Angeles, CA  90066

Tel: (310) 391-9971
Fax: (310) 391-8971
Web: www.StatModel.com
Support: Support@StatModel.com

Copyright (c) 1998-2017 Muthen & Muthen
